{
  "value": {
    "analysisFile": "/home/tullius-usma/dev/lolcatcode/out/lolcatcode/compileRouter.dest/zinc",
    "classes": "ref:v0:1eb61d26:/home/tullius-usma/dev/lolcatcode/out/lolcatcode/compileRouter.dest"
  },
  "valueHash": -599709651,
  "inputsHash": 1557146110
}