{
  "value": {
    "analysisFile": "/home/tullius-usma/dev/lolcatcode/out/lolcatcode/compile.dest/zinc",
    "classes": "ref:v0:d93906e7:/home/tullius-usma/dev/lolcatcode/out/lolcatcode/compile.dest/classes"
  },
  "valueHash": -476089698,
  "inputsHash": 1233264428
}