{
  "value": {
    "dep": {
      "module": {
        "organization": {
          "value": "org.playframework"
        },
        "name": {
          "value": "play-logback"
        },
        "attributes": {}
      },
      "version": "3.0.1",
      "configuration": {
        "value": "default(compile)"
      },
      "minimizedExclusions": {
        "data": "coursier.core.MinimizedExclusions.ExcludeNone"
      },
      "publication": {
        "name": "",
        "type": {
          "value": ""
        },
        "ext": {
          "value": ""
        },
        "classifier": {
          "value": ""
        }
      },
      "optional": false,
      "transitive": true
    },
    "cross": {
      "$type": "mill.scalalib.CrossVersion.Binary",
      "platformed": true
    },
    "force": false
  },
  "valueHash": 327487904,
  "inputsHash": -1929122833
}