{
  "value": [
    "qref:v1:93dbd6e5:/home/tullius-usma/.cache/coursier/v1/https/repo1.maven.org/maven2/org/playframework/play_3/3.0.1/play_3-3.0.1.jar",
    "qref:v1:d220b087:/home/tullius-usma/.cache/coursier/v1/https/repo1.maven.org/maven2/org/playframework/play-guice_3/3.0.1/play-guice_3-3.0.1.jar",
    "qref:v1:15dfbad0:/home/tullius-usma/.cache/coursier/v1/https/repo1.maven.org/maven2/org/playframework/play-server_3/3.0.1/play-server_3-3.0.1.jar",
    "qref:v1:1f5da3b8:/home/tullius-usma/.cache/coursier/v1/https/repo1.maven.org/maven2/org/playframework/play-logback_3/3.0.1/play-logback_3-3.0.1.jar",
    "qref:v1:3a303a0e:/home/tullius-usma/.cache/coursier/v1/https/repo1.maven.org/maven2/org/scala-lang/scala3-library_3/3.3.1/scala3-library_3-3.3.1.jar",
    "qref:v1:fdd4c62e:/home/tullius-usma/.cache/coursier/v1/https/repo1.maven.org/maven2/org/playframework/play-build-link/3.0.1/play-build-link-3.0.1.jar",
    "qref:v1:97d948af:/home/tullius-usma/.cache/coursier/v1/https/repo1.maven.org/maven2/org/playframework/play-streams_3/3.0.1/play-streams_3-3.0.1.jar",
    "qref:v1:9ead00db:/home/tullius-usma/.cache/coursier/v1/https/repo1.maven.org/maven2/org/playframework/play-configuration_3/3.0.1/play-configuration_3-3.0.1.jar",
    "qref:v1:31d321b2:/home/tullius-usma/.cache/coursier/v1/https/repo1.maven.org/maven2/org/playframework/twirl/twirl-api_3/2.0.3/twirl-api_3-2.0.3.jar",
    "qref:v1:bcc745bd:/home/tullius-usma/.cache/coursier/v1/https/repo1.maven.org/maven2/org/slf4j/slf4j-api/2.0.9/slf4j-api-2.0.9.jar",
    "qref:v1:f73bc1bc:/home/tullius-usma/.cache/coursier/v1/https/repo1.maven.org/maven2/org/slf4j/jul-to-slf4j/2.0.9/jul-to-slf4j-2.0.9.jar",
    "qref:v1:8c415af1:/home/tullius-usma/.cache/coursier/v1/https/repo1.maven.org/maven2/org/slf4j/jcl-over-slf4j/2.0.9/jcl-over-slf4j-2.0.9.jar",
    "qref:v1:b9e0b8df:/home/tullius-usma/.cache/coursier/v1/https/repo1.maven.org/maven2/org/apache/pekko/pekko-actor_3/1.0.2/pekko-actor_3-1.0.2.jar",
    "qref:v1:f6f2ff03:/home/tullius-usma/.cache/coursier/v1/https/repo1.maven.org/maven2/org/apache/pekko/pekko-actor-typed_3/1.0.2/pekko-actor-typed_3-1.0.2.jar",
    "qref:v1:7b136fdb:/home/tullius-usma/.cache/coursier/v1/https/repo1.maven.org/maven2/org/apache/pekko/pekko-slf4j_3/1.0.2/pekko-slf4j_3-1.0.2.jar",
    "qref:v1:ae48cf61:/home/tullius-usma/.cache/coursier/v1/https/repo1.maven.org/maven2/org/apache/pekko/pekko-serialization-jackson_3/1.0.2/pekko-serialization-jackson_3-1.0.2.jar",
    "qref:v1:7b07cf4e:/home/tullius-usma/.cache/coursier/v1/https/repo1.maven.org/maven2/com/fasterxml/jackson/core/jackson-core/2.14.3/jackson-core-2.14.3.jar",
    "qref:v1:a1ea1d2d:/home/tullius-usma/.cache/coursier/v1/https/repo1.maven.org/maven2/com/fasterxml/jackson/core/jackson-annotations/2.14.3/jackson-annotations-2.14.3.jar",
    "qref:v1:704348b4:/home/tullius-usma/.cache/coursier/v1/https/repo1.maven.org/maven2/com/fasterxml/jackson/datatype/jackson-datatype-jdk8/2.14.3/jackson-datatype-jdk8-2.14.3.jar",
    "qref:v1:f30c4624:/home/tullius-usma/.cache/coursier/v1/https/repo1.maven.org/maven2/com/fasterxml/jackson/datatype/jackson-datatype-jsr310/2.14.3/jackson-datatype-jsr310-2.14.3.jar",
    "qref:v1:32a2f8f8:/home/tullius-usma/.cache/coursier/v1/https/repo1.maven.org/maven2/com/fasterxml/jackson/core/jackson-databind/2.14.3/jackson-databind-2.14.3.jar",
    "qref:v1:f7d90c29:/home/tullius-usma/.cache/coursier/v1/https/repo1.maven.org/maven2/com/fasterxml/jackson/dataformat/jackson-dataformat-cbor/2.14.3/jackson-dataformat-cbor-2.14.3.jar",
    "qref:v1:7701ba59:/home/tullius-usma/.cache/coursier/v1/https/repo1.maven.org/maven2/com/fasterxml/jackson/module/jackson-module-parameter-names/2.14.3/jackson-module-parameter-names-2.14.3.jar",
    "qref:v1:c5ddef0e:/home/tullius-usma/.cache/coursier/v1/https/repo1.maven.org/maven2/com/fasterxml/jackson/module/jackson-module-scala_3/2.14.3/jackson-module-scala_3-2.14.3.jar",
    "qref:v1:9863b0e9:/home/tullius-usma/.cache/coursier/v1/https/repo1.maven.org/maven2/io/jsonwebtoken/jjwt-api/0.11.5/jjwt-api-0.11.5.jar",
    "qref:v1:ee9f14ad:/home/tullius-usma/.cache/coursier/v1/https/repo1.maven.org/maven2/io/jsonwebtoken/jjwt-impl/0.11.5/jjwt-impl-0.11.5.jar",
    "qref:v1:f8c424e9:/home/tullius-usma/.cache/coursier/v1/https/repo1.maven.org/maven2/io/jsonwebtoken/jjwt-jackson/0.11.5/jjwt-jackson-0.11.5.jar",
    "qref:v1:cf9203a1:/home/tullius-usma/.cache/coursier/v1/https/repo1.maven.org/maven2/org/playframework/play-json_3/3.0.1/play-json_3-3.0.1.jar",
    "qref:v1:a5bc16f2:/home/tullius-usma/.cache/coursier/v1/https/repo1.maven.org/maven2/com/google/guava/guava/32.1.3-jre/guava-32.1.3-jre.jar",
    "qref:v1:bdf40ecc:/home/tullius-usma/.cache/coursier/v1/https/repo1.maven.org/maven2/javax/inject/javax.inject/1/javax.inject-1.jar",
    "qref:v1:498797af:/home/tullius-usma/.cache/coursier/v1/https/repo1.maven.org/maven2/com/typesafe/ssl-config-core_3/0.6.1/ssl-config-core_3-0.6.1.jar",
    "qref:v1:d62385e5:/home/tullius-usma/.cache/coursier/v1/https/repo1.maven.org/maven2/org/scala-lang/modules/scala-parser-combinators_3/2.3.0/scala-parser-combinators_3-2.3.0.jar",
    "qref:v1:f25d8b91:/home/tullius-usma/.cache/coursier/v1/https/repo1.maven.org/maven2/com/google/inject/guice/6.0.0/guice-6.0.0.jar",
    "qref:v1:62e8bd9a:/home/tullius-usma/.cache/coursier/v1/https/repo1.maven.org/maven2/com/google/inject/extensions/guice-assistedinject/6.0.0/guice-assistedinject-6.0.0.jar",
    "qref:v1:6f4e3736:/home/tullius-usma/.cache/coursier/v1/https/repo1.maven.org/maven2/ch/qos/logback/logback-classic/1.4.14/logback-classic-1.4.14.jar",
    "qref:v1:a94bfc28:/home/tullius-usma/.cache/coursier/v1/https/repo1.maven.org/maven2/org/scala-lang/scala-library/2.13.10/scala-library-2.13.10.jar",
    "qref:v1:5004c7da:/home/tullius-usma/.cache/coursier/v1/https/repo1.maven.org/maven2/org/playframework/play-exceptions/3.0.1/play-exceptions-3.0.1.jar",
    "qref:v1:d2fa41c2:/home/tullius-usma/.cache/coursier/v1/https/repo1.maven.org/maven2/org/reactivestreams/reactive-streams/1.0.4/reactive-streams-1.0.4.jar",
    "qref:v1:3ff21fe3:/home/tullius-usma/.cache/coursier/v1/https/repo1.maven.org/maven2/org/apache/pekko/pekko-stream_3/1.0.2/pekko-stream_3-1.0.2.jar",
    "qref:v1:3512b4ee:/home/tullius-usma/.cache/coursier/v1/https/repo1.maven.org/maven2/com/typesafe/config/1.4.3/config-1.4.3.jar",
    "qref:v1:d2add24f:/home/tullius-usma/.cache/coursier/v1/https/repo1.maven.org/maven2/org/scala-lang/modules/scala-xml_3/2.2.0/scala-xml_3-2.2.0.jar",
    "qref:v1:a655a526:/home/tullius-usma/.cache/coursier/v1/https/repo1.maven.org/maven2/org/lz4/lz4-java/1.8.0/lz4-java-1.8.0.jar",
    "qref:v1:9edb433f:/home/tullius-usma/.cache/coursier/v1/https/repo1.maven.org/maven2/com/thoughtworks/paranamer/paranamer/2.8/paranamer-2.8.jar",
    "qref:v1:fe33d944:/home/tullius-usma/.cache/coursier/v1/https/repo1.maven.org/maven2/org/playframework/play-functional_3/3.0.1/play-functional_3-3.0.1.jar",
    "qref:v1:853a7bbc:/home/tullius-usma/.cache/coursier/v1/https/repo1.maven.org/maven2/com/google/guava/failureaccess/1.0.1/failureaccess-1.0.1.jar",
    "qref:v1:0a77b361:/home/tullius-usma/.cache/coursier/v1/https/repo1.maven.org/maven2/com/google/guava/listenablefuture/9999.0-empty-to-avoid-conflict-with-guava/listenablefuture-9999.0-empty-to-avoid-conflict-with-guava.jar",
    "qref:v1:f19fafb0:/home/tullius-usma/.cache/coursier/v1/https/repo1.maven.org/maven2/com/google/code/findbugs/jsr305/3.0.2/jsr305-3.0.2.jar",
    "qref:v1:66d4161e:/home/tullius-usma/.cache/coursier/v1/https/repo1.maven.org/maven2/org/checkerframework/checker-qual/3.37.0/checker-qual-3.37.0.jar",
    "qref:v1:efb0274e:/home/tullius-usma/.cache/coursier/v1/https/repo1.maven.org/maven2/com/google/errorprone/error_prone_annotations/2.21.1/error_prone_annotations-2.21.1.jar",
    "qref:v1:f845358e:/home/tullius-usma/.cache/coursier/v1/https/repo1.maven.org/maven2/com/google/j2objc/j2objc-annotations/2.8/j2objc-annotations-2.8.jar",
    "qref:v1:726322fd:/home/tullius-usma/.cache/coursier/v1/https/repo1.maven.org/maven2/jakarta/inject/jakarta.inject-api/2.0.1/jakarta.inject-api-2.0.1.jar",
    "qref:v1:8eb1a2c9:/home/tullius-usma/.cache/coursier/v1/https/repo1.maven.org/maven2/aopalliance/aopalliance/1.0/aopalliance-1.0.jar",
    "qref:v1:bd985182:/home/tullius-usma/.cache/coursier/v1/https/repo1.maven.org/maven2/ch/qos/logback/logback-core/1.4.14/logback-core-1.4.14.jar",
    "qref:v1:abe64185:/home/tullius-usma/.cache/coursier/v1/https/repo1.maven.org/maven2/org/apache/pekko/pekko-protobuf-v3_3/1.0.2/pekko-protobuf-v3_3-1.0.2.jar"
  ],
  "valueHash": 557699306,
  "inputsHash": 309401089
}