{
  "value": [
    "qref:v1:e06b9606:/home/tullius-usma/.cache/coursier/v1/https/repo1.maven.org/maven2/org/playframework/twirl/twirl-compiler_2.13/2.0.1/twirl-compiler_2.13-2.0.1.jar",
    "qref:v1:92dd92c6:/home/tullius-usma/.cache/coursier/v1/https/repo1.maven.org/maven2/org/scala-lang/modules/scala-parser-combinators_2.13/1.1.2/scala-parser-combinators_2.13-1.1.2.jar",
    "qref:v1:0004e741:/home/tullius-usma/.cache/coursier/v1/https/repo1.maven.org/maven2/org/scala-lang/scala-library/2.13.12/scala-library-2.13.12.jar",
    "qref:v1:cd644457:/home/tullius-usma/.cache/coursier/v1/https/repo1.maven.org/maven2/org/playframework/twirl/twirl-parser_2.13/2.0.1/twirl-parser_2.13-2.0.1.jar",
    "qref:v1:56f928e6:/home/tullius-usma/.cache/coursier/v1/https/repo1.maven.org/maven2/org/scalameta/parsers_2.13/4.8.12/parsers_2.13-4.8.12.jar",
    "qref:v1:6ece1cda:/home/tullius-usma/.cache/coursier/v1/https/repo1.maven.org/maven2/org/scalameta/trees_2.13/4.8.12/trees_2.13-4.8.12.jar",
    "qref:v1:f95f8751:/home/tullius-usma/.cache/coursier/v1/https/repo1.maven.org/maven2/org/scalameta/common_2.13/4.8.12/common_2.13-4.8.12.jar",
    "qref:v1:700a456e:/home/tullius-usma/.cache/coursier/v1/https/repo1.maven.org/maven2/com/lihaoyi/sourcecode_2.13/0.3.1/sourcecode_2.13-0.3.1.jar",
    "qref:v1:a0d74f66:/home/tullius-usma/.cache/coursier/v1/https/repo1.maven.org/maven2/com/thesamet/scalapb/scalapb-runtime_2.13/0.11.13/scalapb-runtime_2.13-0.11.13.jar",
    "qref:v1:fbf629ee:/home/tullius-usma/.cache/coursier/v1/https/repo1.maven.org/maven2/com/thesamet/scalapb/lenses_2.13/0.11.13/lenses_2.13-0.11.13.jar",
    "qref:v1:1fc39305:/home/tullius-usma/.cache/coursier/v1/https/repo1.maven.org/maven2/com/google/protobuf/protobuf-java/3.19.6/protobuf-java-3.19.6.jar",
    "qref:v1:5cbf37f6:/home/tullius-usma/.cache/coursier/v1/https/repo1.maven.org/maven2/org/scala-lang/modules/scala-collection-compat_2.13/2.9.0/scala-collection-compat_2.13-2.9.0.jar"
  ],
  "valueHash": -786399782,
  "inputsHash": -891452253
}