[
  {
    "name": "lolcatcode.scalaVersion",
    "cat": "job",
    "ph": "X",
    "ts": 61496007586,
    "dur": 5096,
    "pid": 1,
    "tid": 0,
    "args": []
  },
  {
    "name": "mill.scalalib.ZincWorkerModule.classpath",
    "cat": "job",
    "ph": "X",
    "ts": 61496013105,
    "dur": 174288,
    "pid": 1,
    "tid": 0,
    "args": []
  },
  {
    "name": "mill.scalalib.ZincWorkerModule.zincLogDebug",
    "cat": "job",
    "ph": "X",
    "ts": 61496187570,
    "dur": 959,
    "pid": 1,
    "tid": 0,
    "args": []
  },
  {
    "name": "mill.scalalib.ZincWorkerModule.worker",
    "cat": "job",
    "ph": "X",
    "ts": 61496188653,
    "dur": 11939,
    "pid": 1,
    "tid": 0,
    "args": []
  },
  {
    "name": "lolcatcode.upstreamCompileOutput",
    "cat": "job",
    "ph": "X",
    "ts": 61496200794,
    "dur": 2643,
    "pid": 1,
    "tid": 0,
    "args": []
  },
  {
    "name": "lolcatcode.app",
    "cat": "job",
    "ph": "X",
    "ts": 61496203574,
    "dur": 3749,
    "pid": 1,
    "tid": 0,
    "args": []
  },
  {
    "name": "lolcatcode.sources",
    "cat": "job",
    "ph": "X",
    "ts": 61496207487,
    "dur": 3082,
    "pid": 1,
    "tid": 0,
    "args": []
  },
  {
    "name": "lolcatcode.generatedSources.super.mill.scalalib.JavaModule.generatedSources",
    "cat": "job",
    "ph": "X",
    "ts": 61496210715,
    "dur": 3081,
    "pid": 1,
    "tid": 0,
    "args": []
  },
  {
    "name": "lolcatcode.playVersion",
    "cat": "job",
    "ph": "X",
    "ts": 61496213955,
    "dur": 2798,
    "pid": 1,
    "tid": 0,
    "args": []
  },
  {
    "name": "mill.playlib.RouteCompilerWorkerModule.routeCompilerWorker",
    "cat": "job",
    "ph": "X",
    "ts": 61496216888,
    "dur": 1534,
    "pid": 1,
    "tid": 0,
    "args": []
  },
  {
    "name": "lolcatcode.playMinorVersion",
    "cat": "job",
    "ph": "X",
    "ts": 61496218573,
    "dur": 2668,
    "pid": 1,
    "tid": 0,
    "args": []
  },
  {
    "name": "lolcatcode.playRouteCompilerWorkerClasspath",
    "cat": "job",
    "ph": "X",
    "ts": 61496221385,
    "dur": 1618101,
    "pid": 1,
    "tid": 0,
    "args": []
  },
  {
    "name": "lolcatcode.platformSuffix",
    "cat": "job",
    "ph": "X",
    "ts": 61497839633,
    "dur": 2491,
    "pid": 1,
    "tid": 0,
    "args": []
  },
  {
    "name": "lolcatcode.scalaOrganization",
    "cat": "job",
    "ph": "X",
    "ts": 61497842227,
    "dur": 4521,
    "pid": 1,
    "tid": 0,
    "args": []
  },
  {
    "name": "lolcatcode.routerClasspath",
    "cat": "job",
    "ph": "X",
    "ts": 61497846893,
    "dur": 77638,
    "pid": 1,
    "tid": 0,
    "args": []
  },
  {
    "name": "lolcatcode.playRouterToolsClasspath",
    "cat": "job",
    "ph": "X",
    "ts": 61497924771,
    "dur": 7843,
    "pid": 1,
    "tid": 0,
    "args": []
  },
  {
    "name": "lolcatcode.conf",
    "cat": "job",
    "ph": "X",
    "ts": 61497932744,
    "dur": 3012,
    "pid": 1,
    "tid": 0,
    "args": []
  },
  {
    "name": "lolcatcode.routes",
    "cat": "job",
    "ph": "X",
    "ts": 61497935873,
    "dur": 2717,
    "pid": 1,
    "tid": 0,
    "args": []
  },
  {
    "name": "lolcatcode.routeFiles",
    "cat": "job",
    "ph": "X",
    "ts": 61497938753,
    "dur": 3170,
    "pid": 1,
    "tid": 0,
    "args": []
  },
  {
    "name": "lolcatcode.compileRouter",
    "cat": "job",
    "ph": "X",
    "ts": 61497942054,
    "dur": 285803,
    "pid": 1,
    "tid": 0,
    "args": []
  },
  {
    "name": "lolcatcode.routerClasses",
    "cat": "job",
    "ph": "X",
    "ts": 61498228017,
    "dur": 2637,
    "pid": 1,
    "tid": 0,
    "args": []
  },
  {
    "name": "lolcatcode.generatedSources.super.mill.playlib.RouterModule.generatedSources",
    "cat": "job",
    "ph": "X",
    "ts": 61498230826,
    "dur": 2356,
    "pid": 1,
    "tid": 0,
    "args": []
  },
  {
    "name": "lolcatcode.twirlVersion",
    "cat": "job",
    "ph": "X",
    "ts": 61498233290,
    "dur": 2204,
    "pid": 1,
    "tid": 0,
    "args": []
  },
  {
    "name": "lolcatcode.twirlScalaVersion",
    "cat": "job",
    "ph": "X",
    "ts": 61498235594,
    "dur": 2405,
    "pid": 1,
    "tid": 0,
    "args": []
  },
  {
    "name": "lolcatcode.scalaParserCombinatorsVersion.super.mill.twirllib.TwirlModule.scalaParserCombinatorsVersion",
    "cat": "job",
    "ph": "X",
    "ts": 61498238140,
    "dur": 2738,
    "pid": 1,
    "tid": 0,
    "args": []
  },
  {
    "name": "lolcatcode.twirlIvyDeps",
    "cat": "job",
    "ph": "X",
    "ts": 61498240996,
    "dur": 2677,
    "pid": 1,
    "tid": 0,
    "args": []
  },
  {
    "name": "lolcatcode.twirlClasspath",
    "cat": "job",
    "ph": "X",
    "ts": 61498243778,
    "dur": 939845,
    "pid": 1,
    "tid": 0,
    "args": []
  },
  {
    "name": "lolcatcode.twirlSources",
    "cat": "job",
    "ph": "X",
    "ts": 61499183788,
    "dur": 2012,
    "pid": 1,
    "tid": 0,
    "args": []
  },
  {
    "name": "lolcatcode.twirlImports.super.mill.twirllib.TwirlModule.twirlImports",
    "cat": "job",
    "ph": "X",
    "ts": 61499185874,
    "dur": 66943,
    "pid": 1,
    "tid": 0,
    "args": []
  },
  {
    "name": "lolcatcode.twirlImports",
    "cat": "job",
    "ph": "X",
    "ts": 61499252946,
    "dur": 1631,
    "pid": 1,
    "tid": 0,
    "args": []
  },
  {
    "name": "lolcatcode.twirlFormats",
    "cat": "job",
    "ph": "X",
    "ts": 61499254657,
    "dur": 1461,
    "pid": 1,
    "tid": 0,
    "args": []
  },
  {
    "name": "lolcatcode.compileTwirl",
    "cat": "job",
    "ph": "X",
    "ts": 61499256188,
    "dur": 152648,
    "pid": 1,
    "tid": 0,
    "args": []
  },
  {
    "name": "lolcatcode.twirlOutput",
    "cat": "job",
    "ph": "X",
    "ts": 61499408964,
    "dur": 1671,
    "pid": 1,
    "tid": 0,
    "args": []
  },
  {
    "name": "lolcatcode.generatedSources",
    "cat": "job",
    "ph": "X",
    "ts": 61499410720,
    "dur": 1589,
    "pid": 1,
    "tid": 0,
    "args": []
  },
  {
    "name": "lolcatcode.allSources",
    "cat": "job",
    "ph": "X",
    "ts": 61499412397,
    "dur": 1294,
    "pid": 1,
    "tid": 0,
    "args": []
  },
  {
    "name": "lolcatcode.allSourceFiles",
    "cat": "job",
    "ph": "X",
    "ts": 61499413764,
    "dur": 2548,
    "pid": 1,
    "tid": 0,
    "args": []
  },
  {
    "name": "lolcatcode.compileIvyDeps",
    "cat": "job",
    "ph": "X",
    "ts": 61499416383,
    "dur": 1319,
    "pid": 1,
    "tid": 0,
    "args": []
  },
  {
    "name": "lolcatcode.transitiveCompileIvyDeps",
    "cat": "job",
    "ph": "X",
    "ts": 61499417773,
    "dur": 1439,
    "pid": 1,
    "tid": 0,
    "args": []
  },
  {
    "name": "lolcatcode.ivyDeps.super.mill.scalalib.JavaModule.ivyDeps",
    "cat": "job",
    "ph": "X",
    "ts": 61499419276,
    "dur": 1523,
    "pid": 1,
    "tid": 0,
    "args": []
  },
  {
    "name": "lolcatcode.playOrganization",
    "cat": "job",
    "ph": "X",
    "ts": 61499420867,
    "dur": 1435,
    "pid": 1,
    "tid": 0,
    "args": []
  },
  {
    "name": "lolcatcode.core",
    "cat": "job",
    "ph": "X",
    "ts": 61499422374,
    "dur": 2071,
    "pid": 1,
    "tid": 0,
    "args": []
  },
  {
    "name": "lolcatcode.guice",
    "cat": "job",
    "ph": "X",
    "ts": 61499424523,
    "dur": 1526,
    "pid": 1,
    "tid": 0,
    "args": []
  },
  {
    "name": "lolcatcode.server",
    "cat": "job",
    "ph": "X",
    "ts": 61499426135,
    "dur": 4129,
    "pid": 1,
    "tid": 0,
    "args": []
  },
  {
    "name": "lolcatcode.logback",
    "cat": "job",
    "ph": "X",
    "ts": 61499430366,
    "dur": 10789,
    "pid": 1,
    "tid": 0,
    "args": []
  },
  {
    "name": "lolcatcode.ivyDeps",
    "cat": "job",
    "ph": "X",
    "ts": 61499441279,
    "dur": 1972,
    "pid": 1,
    "tid": 0,
    "args": []
  },
  {
    "name": "lolcatcode.mandatoryIvyDeps.super.mill.scalalib.JavaModule.mandatoryIvyDeps",
    "cat": "job",
    "ph": "X",
    "ts": 61499443340,
    "dur": 1527,
    "pid": 1,
    "tid": 0,
    "args": []
  },
  {
    "name": "lolcatcode.scalaLibraryIvyDeps",
    "cat": "job",
    "ph": "X",
    "ts": 61499444949,
    "dur": 1787,
    "pid": 1,
    "tid": 0,
    "args": []
  },
  {
    "name": "lolcatcode.mandatoryIvyDeps",
    "cat": "job",
    "ph": "X",
    "ts": 61499446823,
    "dur": 1393,
    "pid": 1,
    "tid": 0,
    "args": []
  },
  {
    "name": "lolcatcode.transitiveIvyDeps",
    "cat": "job",
    "ph": "X",
    "ts": 61499448291,
    "dur": 1682,
    "pid": 1,
    "tid": 0,
    "args": []
  },
  {
    "name": "lolcatcode.resolvedIvyDeps",
    "cat": "job",
    "ph": "X",
    "ts": 61499450054,
    "dur": 72589,
    "pid": 1,
    "tid": 0,
    "args": []
  },
  {
    "name": "lolcatcode.transitiveCompileClasspath",
    "cat": "job",
    "ph": "X",
    "ts": 61499522992,
    "dur": 2112,
    "pid": 1,
    "tid": 0,
    "args": []
  },
  {
    "name": "lolcatcode.compileResources",
    "cat": "job",
    "ph": "X",
    "ts": 61499525207,
    "dur": 1666,
    "pid": 1,
    "tid": 0,
    "args": []
  },
  {
    "name": "lolcatcode.unmanagedClasspath",
    "cat": "job",
    "ph": "X",
    "ts": 61499526952,
    "dur": 1994,
    "pid": 1,
    "tid": 0,
    "args": []
  },
  {
    "name": "lolcatcode.localCompileClasspath",
    "cat": "job",
    "ph": "X",
    "ts": 61499529142,
    "dur": 1821,
    "pid": 1,
    "tid": 0,
    "args": []
  },
  {
    "name": "lolcatcode.compileClasspath",
    "cat": "job",
    "ph": "X",
    "ts": 61499531078,
    "dur": 1690,
    "pid": 1,
    "tid": 0,
    "args": []
  },
  {
    "name": "lolcatcode.javacOptions",
    "cat": "job",
    "ph": "X",
    "ts": 61499532858,
    "dur": 1751,
    "pid": 1,
    "tid": 0,
    "args": []
  },
  {
    "name": "lolcatcode.mandatoryScalacOptions",
    "cat": "job",
    "ph": "X",
    "ts": 61499534707,
    "dur": 1818,
    "pid": 1,
    "tid": 0,
    "args": []
  },
  {
    "name": "lolcatcode.scalacPluginIvyDeps",
    "cat": "job",
    "ph": "X",
    "ts": 61499536628,
    "dur": 2175,
    "pid": 1,
    "tid": 0,
    "args": []
  },
  {
    "name": "lolcatcode.enablePluginScalacOptions.super.mill.scalalib.ScalaModule.enablePluginScalacOptions",
    "cat": "job",
    "ph": "X",
    "ts": 61499538957,
    "dur": 2571,
    "pid": 1,
    "tid": 0,
    "args": []
  },
  {
    "name": "lolcatcode.scalacOptions",
    "cat": "job",
    "ph": "X",
    "ts": 61499541656,
    "dur": 1972,
    "pid": 1,
    "tid": 0,
    "args": []
  },
  {
    "name": "lolcatcode.allScalacOptions",
    "cat": "job",
    "ph": "X",
    "ts": 61499543763,
    "dur": 1845,
    "pid": 1,
    "tid": 0,
    "args": []
  },
  {
    "name": "lolcatcode.scalaCompilerClasspath",
    "cat": "job",
    "ph": "X",
    "ts": 61499545759,
    "dur": 36490,
    "pid": 1,
    "tid": 0,
    "args": []
  },
  {
    "name": "lolcatcode.scalacPluginClasspath",
    "cat": "job",
    "ph": "X",
    "ts": 61499582535,
    "dur": 2624,
    "pid": 1,
    "tid": 0,
    "args": []
  },
  {
    "name": "lolcatcode.zincReportCachedProblems",
    "cat": "job",
    "ph": "X",
    "ts": 61499585265,
    "dur": 1973,
    "pid": 1,
    "tid": 0,
    "args": []
  },
  {
    "name": "lolcatcode.zincIncrementalCompilation",
    "cat": "job",
    "ph": "X",
    "ts": 61499587318,
    "dur": 1527,
    "pid": 1,
    "tid": 0,
    "args": []
  },
  {
    "name": "lolcatcode.compile",
    "cat": "job",
    "ph": "X",
    "ts": 61499588956,
    "dur": 3380376,
    "pid": 1,
    "tid": 0,
    "args": []
  }
]
