{
    "value": [
        "ref:v0:9b6a1a57:/home/tullius-usma/dev/lolcatcode/build.sc",
        "ref:v0:1dfd771c:/home/tullius-usma/dev/lolcatcode/out/mill-build/generateScriptSources.dest"
    ],
    "valueHash": 893095723,
    "inputsHash": 1000814458
}