{
    "value": [
        "ref:v0:6d3b2e52:/home/tullius-usma/dev/lolcatcode/out/mill-build/generateScriptSources.dest/millbuild/build.sc"
    ],
    "valueHash": -1240124659,
    "inputsHash": -1458586248
}