[
  {
    "label": "scriptSources",
    "millis": 6,
    "inputsHash": -1665278524,
    "previousInputsHash": -882116247
  },
  {
    "label": "parseBuildFiles",
    "millis": 6,
    "cached": false,
    "dependencies": [
      "scriptSources"
    ],
    "inputsHash": -1540713013,
    "previousInputsHash": -1981311445
  },
  {
    "label": "cliImports",
    "millis": 2,
    "inputsHash": 1675576396,
    "previousInputsHash": 1575508585
  },
  {
    "label": "runIvyDeps",
    "millis": 1,
    "cached": true,
    "dependencies": [
      "cliImports"
    ],
    "inputsHash": 900707122
  },
  {
    "label": "scalaVersion",
    "millis": 0,
    "cached": true,
    "inputsHash": -1043428974
  },
  {
    "label": "platformSuffix",
    "millis": 0,
    "cached": true,
    "inputsHash": -1043428974
  },
  {
    "label": "ivyDeps",
    "millis": 2,
    "cached": false,
    "dependencies": [
      "parseBuildFiles"
    ],
    "inputsHash": -1511892387,
    "previousInputsHash": 905088198
  },
  {
    "label": "mandatoryIvyDeps.super.mill.scalalib.JavaModule.mandatoryIvyDeps",
    "millis": 0,
    "cached": true,
    "inputsHash": -1043428974
  },
  {
    "label": "scalaOrganization",
    "millis": 0,
    "cached": true,
    "dependencies": [
      "scalaVersion"
    ],
    "inputsHash": -1312708559
  },
  {
    "label": "scalaLibraryIvyDeps",
    "millis": 0,
    "cached": true,
    "dependencies": [
      "scalaOrganization",
      "scalaVersion"
    ],
    "inputsHash": 1884726877
  },
  {
    "label": "mandatoryIvyDeps",
    "millis": 0,
    "cached": true,
    "dependencies": [
      "mandatoryIvyDeps.super.mill.scalalib.JavaModule.mandatoryIvyDeps",
      "scalaLibraryIvyDeps"
    ],
    "inputsHash": 1669725608
  },
  {
    "label": "transitiveIvyDeps",
    "millis": 1,
    "cached": true,
    "dependencies": [
      "scalaVersion",
      "platformSuffix",
      "ivyDeps",
      "mandatoryIvyDeps"
    ],
    "inputsHash": -452162282
  },
  {
    "label": "resolvedRunIvyDeps",
    "millis": 30,
    "cached": false,
    "dependencies": [
      "parseBuildFiles",
      "scalaVersion",
      "platformSuffix",
      "runIvyDeps",
      "transitiveIvyDeps",
      "scalaOrganization"
    ],
    "inputsHash": 1743672014,
    "previousInputsHash": -1942689660
  },
  {
    "label": "transitiveLocalClasspath",
    "millis": 3,
    "cached": true,
    "inputsHash": -1043428974
  },
  {
    "label": "compileResources",
    "millis": 2,
    "inputsHash": -312849352,
    "previousInputsHash": 402656842
  },
  {
    "label": "enclosingClasspath",
    "millis": 6,
    "inputsHash": -2014804820,
    "previousInputsHash": -973622598
  },
  {
    "label": "lineNumberPluginClasspath",
    "millis": 37,
    "cached": false,
    "dependencies": [
      "parseBuildFiles"
    ],
    "inputsHash": -1511892387,
    "previousInputsHash": 905088198
  },
  {
    "label": "unmanagedClasspath",
    "millis": 1,
    "cached": true,
    "dependencies": [
      "enclosingClasspath",
      "lineNumberPluginClasspath"
    ],
    "inputsHash": 1495547494
  },
  {
    "label": "localCompileClasspath",
    "millis": 1,
    "cached": true,
    "dependencies": [
      "compileResources",
      "unmanagedClasspath"
    ],
    "inputsHash": -1967912438
  },
  {
    "label": "resources.super.mill.scalalib.JavaModule.resources",
    "millis": 1,
    "inputsHash": 435996190,
    "previousInputsHash": -877466465
  },
  {
    "label": "resources",
    "millis": 1,
    "cached": false,
    "dependencies": [
      "parseBuildFiles",
      "resources.super.mill.scalalib.JavaModule.resources"
    ],
    "inputsHash": -1008324204,
    "previousInputsHash": 980725158
  },
  {
    "label": "mill.scalalib.ZincWorkerModule.classpath",
    "millis": 2,
    "cached": true,
    "inputsHash": -1043428974
  },
  {
    "label": "mill.scalalib.ZincWorkerModule.zincLogDebug",
    "millis": 0,
    "inputsHash": -1529494261,
    "previousInputsHash": -952020586
  },
  {
    "label": "mill.scalalib.ZincWorkerModule.worker",
    "millis": 0,
    "cached": true,
    "dependencies": [
      "mill.scalalib.ZincWorkerModule.classpath",
      "mill.scalalib.ZincWorkerModule.zincLogDebug"
    ],
    "inputsHash": -1217954079
  },
  {
    "label": "upstreamCompileOutput",
    "millis": 0,
    "cached": true,
    "inputsHash": -1043428974
  },
  {
    "label": "sources.super.mill.scalalib.JavaModule.sources",
    "millis": 1,
    "inputsHash": 1181530836,
    "previousInputsHash": 2059423592
  },
  {
    "label": "sources",
    "millis": 1,
    "cached": false,
    "dependencies": [
      "scriptSources",
      "parseBuildFiles",
      "sources.super.mill.scalalib.JavaModule.sources"
    ],
    "inputsHash": -778313874,
    "previousInputsHash": 1363500439
  },
  {
    "label": "generateScriptSources",
    "millis": 3,
    "cached": false,
    "dependencies": [
      "parseBuildFiles",
      "scriptSources"
    ],
    "inputsHash": -963988960,
    "previousInputsHash": 1089670382
  },
  {
    "label": "generatedSources",
    "millis": 1,
    "cached": false,
    "dependencies": [
      "generateScriptSources"
    ],
    "inputsHash": 18186500,
    "previousInputsHash": -347546276
  },
  {
    "label": "allSources",
    "millis": 1,
    "cached": false,
    "dependencies": [
      "sources",
      "generatedSources"
    ],
    "inputsHash": 1000814458,
    "previousInputsHash": 128847139
  },
  {
    "label": "allSourceFiles",
    "millis": 1,
    "cached": false,
    "dependencies": [
      "allSources",
      "scriptSources"
    ],
    "inputsHash": -1458586248,
    "previousInputsHash": 978746288
  },
  {
    "label": "compileIvyDeps",
    "millis": 0,
    "cached": true,
    "inputsHash": -1043428974
  },
  {
    "label": "transitiveCompileIvyDeps",
    "millis": 0,
    "cached": true,
    "dependencies": [
      "scalaVersion",
      "platformSuffix",
      "compileIvyDeps"
    ],
    "inputsHash": -206019989
  },
  {
    "label": "resolvedIvyDeps",
    "millis": 25,
    "cached": false,
    "dependencies": [
      "parseBuildFiles",
      "transitiveCompileIvyDeps",
      "transitiveIvyDeps",
      "scalaVersion",
      "scalaOrganization"
    ],
    "inputsHash": -528891839,
    "previousInputsHash": -357134558
  },
  {
    "label": "transitiveCompileClasspath",
    "millis": 0,
    "cached": true,
    "inputsHash": -1043428974
  },
  {
    "label": "compileClasspath",
    "millis": 1,
    "cached": true,
    "dependencies": [
      "resolvedIvyDeps",
      "transitiveCompileClasspath",
      "localCompileClasspath"
    ],
    "inputsHash": -375357592
  },
  {
    "label": "javacOptions",
    "millis": 0,
    "cached": true,
    "inputsHash": -1043428974
  },
  {
    "label": "mandatoryScalacOptions",
    "millis": 0,
    "cached": true,
    "inputsHash": -1043428974
  },
  {
    "label": "scalacPluginIvyDeps",
    "millis": 1,
    "cached": true,
    "inputsHash": -1043428974
  },
  {
    "label": "enablePluginScalacOptions.super.mill.scalalib.ScalaModule.enablePluginScalacOptions",
    "millis": 10,
    "cached": false,
    "dependencies": [
      "parseBuildFiles",
      "scalaVersion",
      "platformSuffix",
      "scalacPluginIvyDeps",
      "scalaOrganization"
    ],
    "inputsHash": -1094638992,
    "previousInputsHash": -1346300965
  },
  {
    "label": "scalacOptions.super.mill.scalalib.ScalaModule.scalacOptions",
    "millis": 4,
    "cached": true,
    "inputsHash": -1043428974
  },
  {
    "label": "scalacOptions",
    "millis": 0,
    "cached": true,
    "dependencies": [
      "scalacOptions.super.mill.scalalib.ScalaModule.scalacOptions",
      "lineNumberPluginClasspath"
    ],
    "inputsHash": -1944459593
  },
  {
    "label": "allScalacOptions",
    "millis": 0,
    "cached": true,
    "dependencies": [
      "mandatoryScalacOptions",
      "enablePluginScalacOptions.super.mill.scalalib.ScalaModule.enablePluginScalacOptions",
      "scalacOptions"
    ],
    "inputsHash": 388361745
  },
  {
    "label": "scalaCompilerClasspath",
    "millis": 23,
    "cached": false,
    "dependencies": [
      "parseBuildFiles",
      "scalaVersion",
      "platformSuffix",
      "scalaOrganization",
      "scalaLibraryIvyDeps"
    ],
    "inputsHash": 275216375,
    "previousInputsHash": -266948298
  },
  {
    "label": "scalacPluginClasspath.super.mill.scalalib.ScalaModule.scalacPluginClasspath",
    "millis": 24,
    "cached": false,
    "dependencies": [
      "parseBuildFiles",
      "scalaVersion",
      "platformSuffix",
      "scalacPluginIvyDeps",
      "scalaOrganization"
    ],
    "inputsHash": -1094638992,
    "previousInputsHash": -1346300965
  },
  {
    "label": "scalacPluginClasspath",
    "millis": 1,
    "cached": true,
    "dependencies": [
      "scalacPluginClasspath.super.mill.scalalib.ScalaModule.scalacPluginClasspath",
      "lineNumberPluginClasspath"
    ],
    "inputsHash": 1446756830
  },
  {
    "label": "zincReportCachedProblems",
    "millis": 1,
    "inputsHash": -1640470999,
    "previousInputsHash": 969084105
  },
  {
    "label": "zincIncrementalCompilation",
    "millis": 1,
    "cached": true,
    "inputsHash": -1043428974
  },
  {
    "label": "compile",
    "millis": 1067,
    "cached": false,
    "dependencies": [
      "scalaVersion",
      "mill.scalalib.ZincWorkerModule.worker",
      "upstreamCompileOutput",
      "allSourceFiles",
      "compileClasspath",
      "javacOptions",
      "scalaOrganization",
      "allScalacOptions",
      "scalaCompilerClasspath",
      "scalacPluginClasspath",
      "zincReportCachedProblems",
      "zincIncrementalCompilation"
    ],
    "inputsHash": 817735206,
    "previousInputsHash": 525322980
  },
  {
    "label": "localClasspath",
    "millis": 1,
    "cached": false,
    "dependencies": [
      "localCompileClasspath",
      "resources",
      "compile"
    ],
    "inputsHash": -171478116,
    "previousInputsHash": -464789118
  },
  {
    "label": "runClasspath",
    "millis": 1,
    "cached": false,
    "dependencies": [
      "resolvedRunIvyDeps",
      "transitiveLocalClasspath",
      "localClasspath"
    ],
    "inputsHash": 64813153,
    "previousInputsHash": 770141242
  },
  {
    "label": "scriptImportGraph",
    "millis": 1,
    "cached": false,
    "dependencies": [
      "parseBuildFiles"
    ],
    "inputsHash": -1511892387,
    "previousInputsHash": 905088198
  },
  {
    "label": "methodCodeHashSignatures",
    "millis": 58,
    "cached": false,
    "dependencies": [
      "compile",
      "compileClasspath"
    ],
    "inputsHash": 1499766572,
    "previousInputsHash": -278149676
  }
]
