{
    "workerCache": {
        "mill.scalalib.ZincWorkerModule.worker": {
            "identityHashCode": 1283154479,
            "inputHash": -1217954079
        }
    },
    "evalWatched": [
        "qref:v0:173f5082:/home/tullius-usma/.local/share/coursier/bin/mill",
        "qref:v0:7a96944e:/home/tullius-usma/.cache/coursier/v1/https/repo1.maven.org/maven2/com/lihaoyi/mill-dev_2.13/0.11.6/mill-dev_2.13-0.11.6.jar",
        "qref:v0:0004e741:/home/tullius-usma/.cache/coursier/v1/https/repo1.maven.org/maven2/org/scala-lang/scala-library/2.13.12/scala-library-2.13.12.jar",
        "qref:v0:647bb4c6:/home/tullius-usma/.cache/coursier/v1/https/repo1.maven.org/maven2/com/lihaoyi/mill-moduledefs_2.13/0.10.9/mill-moduledefs_2.13-0.10.9.jar",
        "qref:v0:9a6e8501:/home/tullius-usma/.cache/coursier/v1/https/repo1.maven.org/maven2/com/lihaoyi/mill-runner_2.13/0.11.6/mill-runner_2.13-0.11.6.jar",
        "qref:v0:cdd3661a:/home/tullius-usma/.cache/coursier/v1/https/repo1.maven.org/maven2/com/lihaoyi/mill-idea_2.13/0.11.6/mill-idea_2.13-0.11.6.jar",
        "qref:v0:388af458:/home/tullius-usma/.cache/coursier/v1/https/repo1.maven.org/maven2/org/scala-lang/scala-compiler/2.13.12/scala-compiler-2.13.12.jar",
        "qref:v0:589290b0:/home/tullius-usma/.cache/coursier/v1/https/repo1.maven.org/maven2/com/lihaoyi/sourcecode_2.13/0.3.0/sourcecode_2.13-0.3.0.jar",
        "qref:v0:f033be3a:/home/tullius-usma/.cache/coursier/v1/https/repo1.maven.org/maven2/com/lihaoyi/mill-scalalib_2.13/0.11.6/mill-scalalib_2.13-0.11.6.jar",
        "qref:v0:0a156616:/home/tullius-usma/.cache/coursier/v1/https/repo1.maven.org/maven2/com/lihaoyi/mill-scalajslib_2.13/0.11.6/mill-scalajslib_2.13-0.11.6.jar",
        "qref:v0:73415ee3:/home/tullius-usma/.cache/coursier/v1/https/repo1.maven.org/maven2/com/lihaoyi/mill-scalanativelib_2.13/0.11.6/mill-scalanativelib_2.13-0.11.6.jar",
        "qref:v0:84abb6a2:/home/tullius-usma/.cache/coursier/v1/https/repo1.maven.org/maven2/com/lihaoyi/mill-bsp_2.13/0.11.6/mill-bsp_2.13-0.11.6.jar",
        "qref:v0:8020de6d:/home/tullius-usma/.cache/coursier/v1/https/repo1.maven.org/maven2/com/lihaoyi/mill-runner-linenumbers_2.13/0.11.6/mill-runner-linenumbers_2.13-0.11.6.jar",
        "qref:v0:bb85399a:/home/tullius-usma/.cache/coursier/v1/https/repo1.maven.org/maven2/com/lihaoyi/mill-main-codesig_2.13/0.11.6/mill-main-codesig_2.13-0.11.6.jar",
        "qref:v0:9ddb38f4:/home/tullius-usma/.cache/coursier/v1/https/repo1.maven.org/maven2/org/scala-lang/scala-reflect/2.13.12/scala-reflect-2.13.12.jar",
        "qref:v0:c3fede0e:/home/tullius-usma/.cache/coursier/v1/https/repo1.maven.org/maven2/io/github/java-diff-utils/java-diff-utils/4.12/java-diff-utils-4.12.jar",
        "qref:v0:ee641a25:/home/tullius-usma/.cache/coursier/v1/https/repo1.maven.org/maven2/org/jline/jline/3.23.0/jline-3.23.0.jar",
        "qref:v0:85acd520:/home/tullius-usma/.cache/coursier/v1/https/repo1.maven.org/maven2/net/java/dev/jna/jna/5.13.0/jna-5.13.0.jar",
        "qref:v0:7e7ee917:/home/tullius-usma/.cache/coursier/v1/https/repo1.maven.org/maven2/org/scalameta/scalafmt-dynamic_2.13/3.7.14/scalafmt-dynamic_2.13-3.7.14.jar",
        "qref:v0:1a5396ac:/home/tullius-usma/.cache/coursier/v1/https/repo1.maven.org/maven2/com/lihaoyi/mill-main_2.13/0.11.6/mill-main_2.13-0.11.6.jar",
        "qref:v0:cb21e2cb:/home/tullius-usma/.cache/coursier/v1/https/repo1.maven.org/maven2/com/lihaoyi/mill-scalalib-api_2.13/0.11.6/mill-scalalib-api_2.13-0.11.6.jar",
        "qref:v0:4c00989a:/home/tullius-usma/.cache/coursier/v1/https/repo1.maven.org/maven2/com/lihaoyi/mill-testrunner_2.13/0.11.6/mill-testrunner_2.13-0.11.6.jar",
        "qref:v0:5521e85a:/home/tullius-usma/.cache/coursier/v1/https/repo1.maven.org/maven2/com/lihaoyi/mill-scalajslib-worker-api_2.13/0.11.6/mill-scalajslib-worker-api_2.13-0.11.6.jar",
        "qref:v0:ac6c6bc9:/home/tullius-usma/.cache/coursier/v1/https/repo1.maven.org/maven2/com/lihaoyi/mill-scalanativelib-worker-api_2.13/0.11.6/mill-scalanativelib-worker-api_2.13-0.11.6.jar",
        "qref:v0:bcffcc9d:/home/tullius-usma/.cache/coursier/v1/https/repo1.maven.org/maven2/org/ow2/asm/asm-tree/9.5/asm-tree-9.5.jar",
        "qref:v0:d07d113f:/home/tullius-usma/.cache/coursier/v1/https/repo1.maven.org/maven2/com/lihaoyi/os-lib_2.13/0.9.2/os-lib_2.13-0.9.2.jar",
        "qref:v0:e78081cc:/home/tullius-usma/.cache/coursier/v1/https/repo1.maven.org/maven2/com/lihaoyi/pprint_2.13/0.8.1/pprint_2.13-0.8.1.jar",
        "qref:v0:9ee9764e:/home/tullius-usma/.cache/coursier/v1/https/repo1.maven.org/maven2/com/lihaoyi/mill-main-util_2.13/0.11.6/mill-main-util_2.13-0.11.6.jar",
        "qref:v0:294c0dca:/home/tullius-usma/.cache/coursier/v1/https/repo1.maven.org/maven2/org/scalameta/scalafmt-interfaces/3.7.14/scalafmt-interfaces-3.7.14.jar",
        "qref:v0:3b39aaef:/home/tullius-usma/.cache/coursier/v1/https/repo1.maven.org/maven2/io/get-coursier/interface/1.0.19/interface-1.0.19.jar",
        "qref:v0:98923059:/home/tullius-usma/.cache/coursier/v1/https/repo1.maven.org/maven2/com/typesafe/config/1.4.2/config-1.4.2.jar",
        "qref:v0:0d23d9b0:/home/tullius-usma/.cache/coursier/v1/https/repo1.maven.org/maven2/io/github/alexarchambault/windows-ansi/windows-ansi/0.0.5/windows-ansi-0.0.5.jar",
        "qref:v0:2b7c8b63:/home/tullius-usma/.cache/coursier/v1/https/repo1.maven.org/maven2/com/lihaoyi/mainargs_2.13/0.5.4/mainargs_2.13-0.5.4.jar",
        "qref:v0:457f7481:/home/tullius-usma/.cache/coursier/v1/https/repo1.maven.org/maven2/com/lihaoyi/requests_2.13/0.8.0/requests_2.13-0.8.0.jar",
        "qref:v0:64212d8e:/home/tullius-usma/.cache/coursier/v1/https/repo1.maven.org/maven2/com/lihaoyi/mill-main-eval_2.13/0.11.6/mill-main-eval_2.13-0.11.6.jar",
        "qref:v0:de14bcc6:/home/tullius-usma/.cache/coursier/v1/https/repo1.maven.org/maven2/com/lihaoyi/mill-main-resolve_2.13/0.11.6/mill-main-resolve_2.13-0.11.6.jar",
        "qref:v0:1d685049:/home/tullius-usma/.cache/coursier/v1/https/repo1.maven.org/maven2/com/lihaoyi/mill-main-client/0.11.6/mill-main-client-0.11.6.jar",
        "qref:v0:12795640:/home/tullius-usma/.cache/coursier/v1/https/repo1.maven.org/maven2/com/lihaoyi/mill-main-api_2.13/0.11.6/mill-main-api_2.13-0.11.6.jar",
        "qref:v0:330a8472:/home/tullius-usma/.cache/coursier/v1/https/repo1.maven.org/maven2/com/lihaoyi/mill-testrunner-entrypoint/0.11.6/mill-testrunner-entrypoint-0.11.6.jar",
        "qref:v0:9ca2e086:/home/tullius-usma/.cache/coursier/v1/https/repo1.maven.org/maven2/org/scala-sbt/test-interface/1.0/test-interface-1.0.jar",
        "qref:v0:727a7794:/home/tullius-usma/.cache/coursier/v1/https/repo1.maven.org/maven2/org/ow2/asm/asm/9.5/asm-9.5.jar",
        "qref:v0:0f4c6008:/home/tullius-usma/.cache/coursier/v1/https/repo1.maven.org/maven2/com/lihaoyi/geny_2.13/1.0.0/geny_2.13-1.0.0.jar",
        "qref:v0:4d6ef644:/home/tullius-usma/.cache/coursier/v1/https/repo1.maven.org/maven2/com/lihaoyi/fansi_2.13/0.4.0/fansi_2.13-0.4.0.jar",
        "qref:v0:8a7f91ac:/home/tullius-usma/.cache/coursier/v1/https/repo1.maven.org/maven2/io/get-coursier/coursier_2.13/2.1.7/coursier_2.13-2.1.7.jar",
        "qref:v0:9a88caca:/home/tullius-usma/.cache/coursier/v1/https/repo1.maven.org/maven2/org/slf4j/slf4j-api/1.7.36/slf4j-api-1.7.36.jar",
        "qref:v0:6cc36184:/home/tullius-usma/.cache/coursier/v1/https/repo1.maven.org/maven2/org/fusesource/jansi/jansi/1.18/jansi-1.18.jar",
        "qref:v0:9fdefe3c:/home/tullius-usma/.cache/coursier/v1/https/repo1.maven.org/maven2/org/scala-lang/modules/scala-collection-compat_2.13/2.11.0/scala-collection-compat_2.13-2.11.0.jar",
        "qref:v0:ca657128:/home/tullius-usma/.cache/coursier/v1/https/repo1.maven.org/maven2/com/lihaoyi/mill-main-define_2.13/0.11.6/mill-main-define_2.13-0.11.6.jar",
        "qref:v0:aae203d8:/home/tullius-usma/.cache/coursier/v1/https/repo1.maven.org/maven2/com/lihaoyi/upickle_2.13/3.1.3/upickle_2.13-3.1.3.jar",
        "qref:v0:001f91e3:/home/tullius-usma/.cache/coursier/v1/https/repo1.maven.org/maven2/com/github/plokhotnyuk/jsoniter-scala/jsoniter-scala-core_2.13/2.13.5.2/jsoniter-scala-core_2.13-2.13.5.2.jar",
        "qref:v0:357be82d:/home/tullius-usma/.cache/coursier/v1/https/repo1.maven.org/maven2/io/get-coursier/coursier-core_2.13/2.1.7/coursier-core_2.13-2.1.7.jar",
        "qref:v0:ae066c69:/home/tullius-usma/.cache/coursier/v1/https/repo1.maven.org/maven2/io/get-coursier/coursier-cache_2.13/2.1.7/coursier-cache_2.13-2.1.7.jar",
        "qref:v0:caeb9628:/home/tullius-usma/.cache/coursier/v1/https/repo1.maven.org/maven2/io/get-coursier/coursier-proxy-setup/2.1.7/coursier-proxy-setup-2.1.7.jar",
        "qref:v0:6aff1cfc:/home/tullius-usma/.cache/coursier/v1/https/repo1.maven.org/maven2/net/java/dev/jna/jna-platform/5.13.0/jna-platform-5.13.0.jar",
        "qref:v0:d99fc5fa:/home/tullius-usma/.cache/coursier/v1/https/repo1.maven.org/maven2/com/eed3si9n/jarjarabrams/jarjar-abrams-core_2.13/1.9.0/jarjar-abrams-core_2.13-1.9.0.jar",
        "qref:v0:432c531e:/home/tullius-usma/.cache/coursier/v1/https/repo1.maven.org/maven2/com/lihaoyi/scalaparse_2.13/3.0.2/scalaparse_2.13-3.0.2.jar",
        "qref:v0:bbf09002:/home/tullius-usma/.cache/coursier/v1/https/repo1.maven.org/maven2/com/kohlschutter/junixsocket/junixsocket-native-common/2.8.2/junixsocket-native-common-2.8.2.jar",
        "qref:v0:69579504:/home/tullius-usma/.cache/coursier/v1/https/repo1.maven.org/maven2/com/kohlschutter/junixsocket/junixsocket-common/2.8.2/junixsocket-common-2.8.2.jar",
        "qref:v0:8dc6509a:/home/tullius-usma/.cache/coursier/v1/https/repo1.maven.org/maven2/com/lihaoyi/ujson_2.13/3.1.3/ujson_2.13-3.1.3.jar",
        "qref:v0:67e5cc8d:/home/tullius-usma/.cache/coursier/v1/https/repo1.maven.org/maven2/com/lihaoyi/upack_2.13/3.1.3/upack_2.13-3.1.3.jar",
        "qref:v0:ae4ed663:/home/tullius-usma/.cache/coursier/v1/https/repo1.maven.org/maven2/com/lihaoyi/upickle-implicits_2.13/3.1.3/upickle-implicits_2.13-3.1.3.jar",
        "qref:v0:64f5d927:/home/tullius-usma/.cache/coursier/v1/https/repo1.maven.org/maven2/io/github/alexarchambault/concurrent-reference-hash-map/1.1.0/concurrent-reference-hash-map-1.1.0.jar",
        "qref:v0:51a156e2:/home/tullius-usma/.cache/coursier/v1/https/repo1.maven.org/maven2/org/scala-lang/modules/scala-xml_2.13/2.2.0/scala-xml_2.13-2.2.0.jar",
        "qref:v0:9632b503:/home/tullius-usma/.cache/coursier/v1/https/repo1.maven.org/maven2/io/get-coursier/coursier-util_2.13/2.1.7/coursier-util_2.13-2.1.7.jar",
        "qref:v0:b1167082:/home/tullius-usma/.cache/coursier/v1/https/repo1.maven.org/maven2/io/get-coursier/jniutils/windows-jni-utils/0.3.3/windows-jni-utils-0.3.3.jar",
        "qref:v0:1ee9b5fd:/home/tullius-usma/.cache/coursier/v1/https/repo1.maven.org/maven2/org/codehaus/plexus/plexus-archiver/4.8.0/plexus-archiver-4.8.0.jar",
        "qref:v0:6e9c9c12:/home/tullius-usma/.cache/coursier/v1/https/repo1.maven.org/maven2/org/codehaus/plexus/plexus-container-default/2.1.1/plexus-container-default-2.1.1.jar",
        "qref:v0:87dc3814:/home/tullius-usma/.cache/coursier/v1/https/repo1.maven.org/maven2/org/virtuslab/scala-cli/config_2.13/0.2.1/config_2.13-0.2.1.jar",
        "qref:v0:8375b141:/home/tullius-usma/.cache/coursier/v1/https/repo1.maven.org/maven2/com/eed3si9n/jarjar/jarjar/1.9.0/jarjar-1.9.0.jar",
        "qref:v0:4f723aa8:/home/tullius-usma/.cache/coursier/v1/https/repo1.maven.org/maven2/com/lihaoyi/fastparse_2.13/3.0.2/fastparse_2.13-3.0.2.jar",
        "qref:v0:100831ba:/home/tullius-usma/.cache/coursier/v1/https/repo1.maven.org/maven2/com/lihaoyi/upickle-core_2.13/3.1.3/upickle-core_2.13-3.1.3.jar",
        "qref:v0:bdf40ecc:/home/tullius-usma/.cache/coursier/v1/https/repo1.maven.org/maven2/javax/inject/javax.inject/1/javax.inject-1.jar",
        "qref:v0:271fa741:/home/tullius-usma/.cache/coursier/v1/https/repo1.maven.org/maven2/org/codehaus/plexus/plexus-utils/4.0.0/plexus-utils-4.0.0.jar",
        "qref:v0:81056b20:/home/tullius-usma/.cache/coursier/v1/https/repo1.maven.org/maven2/org/codehaus/plexus/plexus-io/3.4.1/plexus-io-3.4.1.jar",
        "qref:v0:51b6eefe:/home/tullius-usma/.cache/coursier/v1/https/repo1.maven.org/maven2/commons-io/commons-io/2.13.0/commons-io-2.13.0.jar",
        "qref:v0:5ffba53b:/home/tullius-usma/.cache/coursier/v1/https/repo1.maven.org/maven2/org/apache/commons/commons-compress/1.23.0/commons-compress-1.23.0.jar",
        "qref:v0:77a9e1af:/home/tullius-usma/.cache/coursier/v1/https/repo1.maven.org/maven2/org/iq80/snappy/snappy/0.4/snappy-0.4.jar",
        "qref:v0:e87cf8cf:/home/tullius-usma/.cache/coursier/v1/https/repo1.maven.org/maven2/org/tukaani/xz/1.9/xz-1.9.jar",
        "qref:v0:d432ce51:/home/tullius-usma/.cache/coursier/v1/https/repo1.maven.org/maven2/com/github/luben/zstd-jni/1.5.5-5/zstd-jni-1.5.5-5.jar",
        "qref:v0:307e573e:/home/tullius-usma/.cache/coursier/v1/https/repo1.maven.org/maven2/org/codehaus/plexus/plexus-classworlds/2.6.0/plexus-classworlds-2.6.0.jar",
        "qref:v0:02881b91:/home/tullius-usma/.cache/coursier/v1/https/repo1.maven.org/maven2/org/apache/xbean/xbean-reflect/3.7/xbean-reflect-3.7.jar",
        "qref:v0:d02cfeac:/home/tullius-usma/.cache/coursier/v1/https/repo1.maven.org/maven2/org/ow2/asm/asm-commons/9.5/asm-commons-9.5.jar",
        "qref:v0:17a3e014:/home/tullius-usma/.cache/coursier/v1/https/repo1.maven.org/maven2/org/apache/commons/commons-lang3/3.8.1/commons-lang3-3.8.1.jar",
        "ref:v0:c984eca8:/home/tullius-usma/dev/lolcatcode/mill-build/src",
        "ref:v0:c984eca8:/home/tullius-usma/dev/lolcatcode/mill-build/compile-resources",
        "ref:v0:c984eca8:/home/tullius-usma/dev/lolcatcode/mill-build/resources",
        "ref:v0:9b6a1a57:/home/tullius-usma/dev/lolcatcode/build.sc"
    ],
    "moduleWatched": [],
    "scriptImportGraph": [
        [
            "/home/tullius-usma/dev/lolcatcode/build.sc",
            [
                -197448825,
                []
            ]
        ]
    ],
    "classLoaderIdentity": [
        -1144543192
    ],
    "runClasspath": [
        "qref:v1:b84765b9:/home/tullius-usma/.cache/coursier/v1/https/repo1.maven.org/maven2/com/lihaoyi/mill-contrib-playlib_2.13/0.11.6/mill-contrib-playlib_2.13-0.11.6.jar",
        "qref:v1:647bb4c6:/home/tullius-usma/.cache/coursier/v1/https/repo1.maven.org/maven2/com/lihaoyi/mill-moduledefs_2.13/0.10.9/mill-moduledefs_2.13-0.10.9.jar",
        "qref:v1:0004e741:/home/tullius-usma/.cache/coursier/v1/https/repo1.maven.org/maven2/org/scala-lang/scala-library/2.13.12/scala-library-2.13.12.jar",
        "qref:v1:f7adbcb9:/home/tullius-usma/.cache/coursier/v1/https/repo1.maven.org/maven2/com/lihaoyi/mill-contrib-twirllib_2.13/0.11.6/mill-contrib-twirllib_2.13-0.11.6.jar",
        "qref:v1:3e78f9b7:/home/tullius-usma/.cache/coursier/v1/https/repo1.maven.org/maven2/com/lihaoyi/mill-contrib-playlib-api/0.11.6/mill-contrib-playlib-api-0.11.6.jar",
        "qref:v1:388af458:/home/tullius-usma/.cache/coursier/v1/https/repo1.maven.org/maven2/org/scala-lang/scala-compiler/2.13.12/scala-compiler-2.13.12.jar",
        "qref:v1:589290b0:/home/tullius-usma/.cache/coursier/v1/https/repo1.maven.org/maven2/com/lihaoyi/sourcecode_2.13/0.3.0/sourcecode_2.13-0.3.0.jar",
        "qref:v1:9ddb38f4:/home/tullius-usma/.cache/coursier/v1/https/repo1.maven.org/maven2/org/scala-lang/scala-reflect/2.13.12/scala-reflect-2.13.12.jar",
        "qref:v1:c3fede0e:/home/tullius-usma/.cache/coursier/v1/https/repo1.maven.org/maven2/io/github/java-diff-utils/java-diff-utils/4.12/java-diff-utils-4.12.jar",
        "qref:v1:cc689ca3:/home/tullius-usma/.cache/coursier/v1/https/repo1.maven.org/maven2/org/jline/jline/3.22.0/jline-3.22.0.jar",
        "qref:v1:85acd520:/home/tullius-usma/.cache/coursier/v1/https/repo1.maven.org/maven2/net/java/dev/jna/jna/5.13.0/jna-5.13.0.jar",
        "ref:v0:c984eca8:/home/tullius-usma/dev/lolcatcode/mill-build/compile-resources",
        "qref:v0:173f5082:/home/tullius-usma/.local/share/coursier/bin/mill",
        "qref:v0:7a96944e:/home/tullius-usma/.cache/coursier/v1/https/repo1.maven.org/maven2/com/lihaoyi/mill-dev_2.13/0.11.6/mill-dev_2.13-0.11.6.jar",
        "qref:v0:0004e741:/home/tullius-usma/.cache/coursier/v1/https/repo1.maven.org/maven2/org/scala-lang/scala-library/2.13.12/scala-library-2.13.12.jar",
        "qref:v0:647bb4c6:/home/tullius-usma/.cache/coursier/v1/https/repo1.maven.org/maven2/com/lihaoyi/mill-moduledefs_2.13/0.10.9/mill-moduledefs_2.13-0.10.9.jar",
        "qref:v0:9a6e8501:/home/tullius-usma/.cache/coursier/v1/https/repo1.maven.org/maven2/com/lihaoyi/mill-runner_2.13/0.11.6/mill-runner_2.13-0.11.6.jar",
        "qref:v0:cdd3661a:/home/tullius-usma/.cache/coursier/v1/https/repo1.maven.org/maven2/com/lihaoyi/mill-idea_2.13/0.11.6/mill-idea_2.13-0.11.6.jar",
        "qref:v0:388af458:/home/tullius-usma/.cache/coursier/v1/https/repo1.maven.org/maven2/org/scala-lang/scala-compiler/2.13.12/scala-compiler-2.13.12.jar",
        "qref:v0:589290b0:/home/tullius-usma/.cache/coursier/v1/https/repo1.maven.org/maven2/com/lihaoyi/sourcecode_2.13/0.3.0/sourcecode_2.13-0.3.0.jar",
        "qref:v0:f033be3a:/home/tullius-usma/.cache/coursier/v1/https/repo1.maven.org/maven2/com/lihaoyi/mill-scalalib_2.13/0.11.6/mill-scalalib_2.13-0.11.6.jar",
        "qref:v0:0a156616:/home/tullius-usma/.cache/coursier/v1/https/repo1.maven.org/maven2/com/lihaoyi/mill-scalajslib_2.13/0.11.6/mill-scalajslib_2.13-0.11.6.jar",
        "qref:v0:73415ee3:/home/tullius-usma/.cache/coursier/v1/https/repo1.maven.org/maven2/com/lihaoyi/mill-scalanativelib_2.13/0.11.6/mill-scalanativelib_2.13-0.11.6.jar",
        "qref:v0:84abb6a2:/home/tullius-usma/.cache/coursier/v1/https/repo1.maven.org/maven2/com/lihaoyi/mill-bsp_2.13/0.11.6/mill-bsp_2.13-0.11.6.jar",
        "qref:v0:8020de6d:/home/tullius-usma/.cache/coursier/v1/https/repo1.maven.org/maven2/com/lihaoyi/mill-runner-linenumbers_2.13/0.11.6/mill-runner-linenumbers_2.13-0.11.6.jar",
        "qref:v0:bb85399a:/home/tullius-usma/.cache/coursier/v1/https/repo1.maven.org/maven2/com/lihaoyi/mill-main-codesig_2.13/0.11.6/mill-main-codesig_2.13-0.11.6.jar",
        "qref:v0:9ddb38f4:/home/tullius-usma/.cache/coursier/v1/https/repo1.maven.org/maven2/org/scala-lang/scala-reflect/2.13.12/scala-reflect-2.13.12.jar",
        "qref:v0:c3fede0e:/home/tullius-usma/.cache/coursier/v1/https/repo1.maven.org/maven2/io/github/java-diff-utils/java-diff-utils/4.12/java-diff-utils-4.12.jar",
        "qref:v0:ee641a25:/home/tullius-usma/.cache/coursier/v1/https/repo1.maven.org/maven2/org/jline/jline/3.23.0/jline-3.23.0.jar",
        "qref:v0:85acd520:/home/tullius-usma/.cache/coursier/v1/https/repo1.maven.org/maven2/net/java/dev/jna/jna/5.13.0/jna-5.13.0.jar",
        "qref:v0:7e7ee917:/home/tullius-usma/.cache/coursier/v1/https/repo1.maven.org/maven2/org/scalameta/scalafmt-dynamic_2.13/3.7.14/scalafmt-dynamic_2.13-3.7.14.jar",
        "qref:v0:1a5396ac:/home/tullius-usma/.cache/coursier/v1/https/repo1.maven.org/maven2/com/lihaoyi/mill-main_2.13/0.11.6/mill-main_2.13-0.11.6.jar",
        "qref:v0:cb21e2cb:/home/tullius-usma/.cache/coursier/v1/https/repo1.maven.org/maven2/com/lihaoyi/mill-scalalib-api_2.13/0.11.6/mill-scalalib-api_2.13-0.11.6.jar",
        "qref:v0:4c00989a:/home/tullius-usma/.cache/coursier/v1/https/repo1.maven.org/maven2/com/lihaoyi/mill-testrunner_2.13/0.11.6/mill-testrunner_2.13-0.11.6.jar",
        "qref:v0:5521e85a:/home/tullius-usma/.cache/coursier/v1/https/repo1.maven.org/maven2/com/lihaoyi/mill-scalajslib-worker-api_2.13/0.11.6/mill-scalajslib-worker-api_2.13-0.11.6.jar",
        "qref:v0:ac6c6bc9:/home/tullius-usma/.cache/coursier/v1/https/repo1.maven.org/maven2/com/lihaoyi/mill-scalanativelib-worker-api_2.13/0.11.6/mill-scalanativelib-worker-api_2.13-0.11.6.jar",
        "qref:v0:bcffcc9d:/home/tullius-usma/.cache/coursier/v1/https/repo1.maven.org/maven2/org/ow2/asm/asm-tree/9.5/asm-tree-9.5.jar",
        "qref:v0:d07d113f:/home/tullius-usma/.cache/coursier/v1/https/repo1.maven.org/maven2/com/lihaoyi/os-lib_2.13/0.9.2/os-lib_2.13-0.9.2.jar",
        "qref:v0:e78081cc:/home/tullius-usma/.cache/coursier/v1/https/repo1.maven.org/maven2/com/lihaoyi/pprint_2.13/0.8.1/pprint_2.13-0.8.1.jar",
        "qref:v0:9ee9764e:/home/tullius-usma/.cache/coursier/v1/https/repo1.maven.org/maven2/com/lihaoyi/mill-main-util_2.13/0.11.6/mill-main-util_2.13-0.11.6.jar",
        "qref:v0:294c0dca:/home/tullius-usma/.cache/coursier/v1/https/repo1.maven.org/maven2/org/scalameta/scalafmt-interfaces/3.7.14/scalafmt-interfaces-3.7.14.jar",
        "qref:v0:3b39aaef:/home/tullius-usma/.cache/coursier/v1/https/repo1.maven.org/maven2/io/get-coursier/interface/1.0.19/interface-1.0.19.jar",
        "qref:v0:98923059:/home/tullius-usma/.cache/coursier/v1/https/repo1.maven.org/maven2/com/typesafe/config/1.4.2/config-1.4.2.jar",
        "qref:v0:0d23d9b0:/home/tullius-usma/.cache/coursier/v1/https/repo1.maven.org/maven2/io/github/alexarchambault/windows-ansi/windows-ansi/0.0.5/windows-ansi-0.0.5.jar",
        "qref:v0:2b7c8b63:/home/tullius-usma/.cache/coursier/v1/https/repo1.maven.org/maven2/com/lihaoyi/mainargs_2.13/0.5.4/mainargs_2.13-0.5.4.jar",
        "qref:v0:457f7481:/home/tullius-usma/.cache/coursier/v1/https/repo1.maven.org/maven2/com/lihaoyi/requests_2.13/0.8.0/requests_2.13-0.8.0.jar",
        "qref:v0:64212d8e:/home/tullius-usma/.cache/coursier/v1/https/repo1.maven.org/maven2/com/lihaoyi/mill-main-eval_2.13/0.11.6/mill-main-eval_2.13-0.11.6.jar",
        "qref:v0:de14bcc6:/home/tullius-usma/.cache/coursier/v1/https/repo1.maven.org/maven2/com/lihaoyi/mill-main-resolve_2.13/0.11.6/mill-main-resolve_2.13-0.11.6.jar",
        "qref:v0:1d685049:/home/tullius-usma/.cache/coursier/v1/https/repo1.maven.org/maven2/com/lihaoyi/mill-main-client/0.11.6/mill-main-client-0.11.6.jar",
        "qref:v0:12795640:/home/tullius-usma/.cache/coursier/v1/https/repo1.maven.org/maven2/com/lihaoyi/mill-main-api_2.13/0.11.6/mill-main-api_2.13-0.11.6.jar",
        "qref:v0:330a8472:/home/tullius-usma/.cache/coursier/v1/https/repo1.maven.org/maven2/com/lihaoyi/mill-testrunner-entrypoint/0.11.6/mill-testrunner-entrypoint-0.11.6.jar",
        "qref:v0:9ca2e086:/home/tullius-usma/.cache/coursier/v1/https/repo1.maven.org/maven2/org/scala-sbt/test-interface/1.0/test-interface-1.0.jar",
        "qref:v0:727a7794:/home/tullius-usma/.cache/coursier/v1/https/repo1.maven.org/maven2/org/ow2/asm/asm/9.5/asm-9.5.jar",
        "qref:v0:0f4c6008:/home/tullius-usma/.cache/coursier/v1/https/repo1.maven.org/maven2/com/lihaoyi/geny_2.13/1.0.0/geny_2.13-1.0.0.jar",
        "qref:v0:4d6ef644:/home/tullius-usma/.cache/coursier/v1/https/repo1.maven.org/maven2/com/lihaoyi/fansi_2.13/0.4.0/fansi_2.13-0.4.0.jar",
        "qref:v0:8a7f91ac:/home/tullius-usma/.cache/coursier/v1/https/repo1.maven.org/maven2/io/get-coursier/coursier_2.13/2.1.7/coursier_2.13-2.1.7.jar",
        "qref:v0:9a88caca:/home/tullius-usma/.cache/coursier/v1/https/repo1.maven.org/maven2/org/slf4j/slf4j-api/1.7.36/slf4j-api-1.7.36.jar",
        "qref:v0:6cc36184:/home/tullius-usma/.cache/coursier/v1/https/repo1.maven.org/maven2/org/fusesource/jansi/jansi/1.18/jansi-1.18.jar",
        "qref:v0:9fdefe3c:/home/tullius-usma/.cache/coursier/v1/https/repo1.maven.org/maven2/org/scala-lang/modules/scala-collection-compat_2.13/2.11.0/scala-collection-compat_2.13-2.11.0.jar",
        "qref:v0:ca657128:/home/tullius-usma/.cache/coursier/v1/https/repo1.maven.org/maven2/com/lihaoyi/mill-main-define_2.13/0.11.6/mill-main-define_2.13-0.11.6.jar",
        "qref:v0:aae203d8:/home/tullius-usma/.cache/coursier/v1/https/repo1.maven.org/maven2/com/lihaoyi/upickle_2.13/3.1.3/upickle_2.13-3.1.3.jar",
        "qref:v0:001f91e3:/home/tullius-usma/.cache/coursier/v1/https/repo1.maven.org/maven2/com/github/plokhotnyuk/jsoniter-scala/jsoniter-scala-core_2.13/2.13.5.2/jsoniter-scala-core_2.13-2.13.5.2.jar",
        "qref:v0:357be82d:/home/tullius-usma/.cache/coursier/v1/https/repo1.maven.org/maven2/io/get-coursier/coursier-core_2.13/2.1.7/coursier-core_2.13-2.1.7.jar",
        "qref:v0:ae066c69:/home/tullius-usma/.cache/coursier/v1/https/repo1.maven.org/maven2/io/get-coursier/coursier-cache_2.13/2.1.7/coursier-cache_2.13-2.1.7.jar",
        "qref:v0:caeb9628:/home/tullius-usma/.cache/coursier/v1/https/repo1.maven.org/maven2/io/get-coursier/coursier-proxy-setup/2.1.7/coursier-proxy-setup-2.1.7.jar",
        "qref:v0:6aff1cfc:/home/tullius-usma/.cache/coursier/v1/https/repo1.maven.org/maven2/net/java/dev/jna/jna-platform/5.13.0/jna-platform-5.13.0.jar",
        "qref:v0:d99fc5fa:/home/tullius-usma/.cache/coursier/v1/https/repo1.maven.org/maven2/com/eed3si9n/jarjarabrams/jarjar-abrams-core_2.13/1.9.0/jarjar-abrams-core_2.13-1.9.0.jar",
        "qref:v0:432c531e:/home/tullius-usma/.cache/coursier/v1/https/repo1.maven.org/maven2/com/lihaoyi/scalaparse_2.13/3.0.2/scalaparse_2.13-3.0.2.jar",
        "qref:v0:bbf09002:/home/tullius-usma/.cache/coursier/v1/https/repo1.maven.org/maven2/com/kohlschutter/junixsocket/junixsocket-native-common/2.8.2/junixsocket-native-common-2.8.2.jar",
        "qref:v0:69579504:/home/tullius-usma/.cache/coursier/v1/https/repo1.maven.org/maven2/com/kohlschutter/junixsocket/junixsocket-common/2.8.2/junixsocket-common-2.8.2.jar",
        "qref:v0:8dc6509a:/home/tullius-usma/.cache/coursier/v1/https/repo1.maven.org/maven2/com/lihaoyi/ujson_2.13/3.1.3/ujson_2.13-3.1.3.jar",
        "qref:v0:67e5cc8d:/home/tullius-usma/.cache/coursier/v1/https/repo1.maven.org/maven2/com/lihaoyi/upack_2.13/3.1.3/upack_2.13-3.1.3.jar",
        "qref:v0:ae4ed663:/home/tullius-usma/.cache/coursier/v1/https/repo1.maven.org/maven2/com/lihaoyi/upickle-implicits_2.13/3.1.3/upickle-implicits_2.13-3.1.3.jar",
        "qref:v0:64f5d927:/home/tullius-usma/.cache/coursier/v1/https/repo1.maven.org/maven2/io/github/alexarchambault/concurrent-reference-hash-map/1.1.0/concurrent-reference-hash-map-1.1.0.jar",
        "qref:v0:51a156e2:/home/tullius-usma/.cache/coursier/v1/https/repo1.maven.org/maven2/org/scala-lang/modules/scala-xml_2.13/2.2.0/scala-xml_2.13-2.2.0.jar",
        "qref:v0:9632b503:/home/tullius-usma/.cache/coursier/v1/https/repo1.maven.org/maven2/io/get-coursier/coursier-util_2.13/2.1.7/coursier-util_2.13-2.1.7.jar",
        "qref:v0:b1167082:/home/tullius-usma/.cache/coursier/v1/https/repo1.maven.org/maven2/io/get-coursier/jniutils/windows-jni-utils/0.3.3/windows-jni-utils-0.3.3.jar",
        "qref:v0:1ee9b5fd:/home/tullius-usma/.cache/coursier/v1/https/repo1.maven.org/maven2/org/codehaus/plexus/plexus-archiver/4.8.0/plexus-archiver-4.8.0.jar",
        "qref:v0:6e9c9c12:/home/tullius-usma/.cache/coursier/v1/https/repo1.maven.org/maven2/org/codehaus/plexus/plexus-container-default/2.1.1/plexus-container-default-2.1.1.jar",
        "qref:v0:87dc3814:/home/tullius-usma/.cache/coursier/v1/https/repo1.maven.org/maven2/org/virtuslab/scala-cli/config_2.13/0.2.1/config_2.13-0.2.1.jar",
        "qref:v0:8375b141:/home/tullius-usma/.cache/coursier/v1/https/repo1.maven.org/maven2/com/eed3si9n/jarjar/jarjar/1.9.0/jarjar-1.9.0.jar",
        "qref:v0:4f723aa8:/home/tullius-usma/.cache/coursier/v1/https/repo1.maven.org/maven2/com/lihaoyi/fastparse_2.13/3.0.2/fastparse_2.13-3.0.2.jar",
        "qref:v0:100831ba:/home/tullius-usma/.cache/coursier/v1/https/repo1.maven.org/maven2/com/lihaoyi/upickle-core_2.13/3.1.3/upickle-core_2.13-3.1.3.jar",
        "qref:v0:bdf40ecc:/home/tullius-usma/.cache/coursier/v1/https/repo1.maven.org/maven2/javax/inject/javax.inject/1/javax.inject-1.jar",
        "qref:v0:271fa741:/home/tullius-usma/.cache/coursier/v1/https/repo1.maven.org/maven2/org/codehaus/plexus/plexus-utils/4.0.0/plexus-utils-4.0.0.jar",
        "qref:v0:81056b20:/home/tullius-usma/.cache/coursier/v1/https/repo1.maven.org/maven2/org/codehaus/plexus/plexus-io/3.4.1/plexus-io-3.4.1.jar",
        "qref:v0:51b6eefe:/home/tullius-usma/.cache/coursier/v1/https/repo1.maven.org/maven2/commons-io/commons-io/2.13.0/commons-io-2.13.0.jar",
        "qref:v0:5ffba53b:/home/tullius-usma/.cache/coursier/v1/https/repo1.maven.org/maven2/org/apache/commons/commons-compress/1.23.0/commons-compress-1.23.0.jar",
        "qref:v0:77a9e1af:/home/tullius-usma/.cache/coursier/v1/https/repo1.maven.org/maven2/org/iq80/snappy/snappy/0.4/snappy-0.4.jar",
        "qref:v0:e87cf8cf:/home/tullius-usma/.cache/coursier/v1/https/repo1.maven.org/maven2/org/tukaani/xz/1.9/xz-1.9.jar",
        "qref:v0:d432ce51:/home/tullius-usma/.cache/coursier/v1/https/repo1.maven.org/maven2/com/github/luben/zstd-jni/1.5.5-5/zstd-jni-1.5.5-5.jar",
        "qref:v0:307e573e:/home/tullius-usma/.cache/coursier/v1/https/repo1.maven.org/maven2/org/codehaus/plexus/plexus-classworlds/2.6.0/plexus-classworlds-2.6.0.jar",
        "qref:v0:02881b91:/home/tullius-usma/.cache/coursier/v1/https/repo1.maven.org/maven2/org/apache/xbean/xbean-reflect/3.7/xbean-reflect-3.7.jar",
        "qref:v0:d02cfeac:/home/tullius-usma/.cache/coursier/v1/https/repo1.maven.org/maven2/org/ow2/asm/asm-commons/9.5/asm-commons-9.5.jar",
        "qref:v0:17a3e014:/home/tullius-usma/.cache/coursier/v1/https/repo1.maven.org/maven2/org/apache/commons/commons-lang3/3.8.1/commons-lang3-3.8.1.jar",
        "qref:v1:8020de6d:/home/tullius-usma/.cache/coursier/v1/https/repo1.maven.org/maven2/com/lihaoyi/mill-runner-linenumbers_2.13/0.11.6/mill-runner-linenumbers_2.13-0.11.6.jar",
        "qref:v1:388af458:/home/tullius-usma/.cache/coursier/v1/https/repo1.maven.org/maven2/org/scala-lang/scala-compiler/2.13.12/scala-compiler-2.13.12.jar",
        "qref:v1:0004e741:/home/tullius-usma/.cache/coursier/v1/https/repo1.maven.org/maven2/org/scala-lang/scala-library/2.13.12/scala-library-2.13.12.jar",
        "qref:v1:647bb4c6:/home/tullius-usma/.cache/coursier/v1/https/repo1.maven.org/maven2/com/lihaoyi/mill-moduledefs_2.13/0.10.9/mill-moduledefs_2.13-0.10.9.jar",
        "qref:v1:9ddb38f4:/home/tullius-usma/.cache/coursier/v1/https/repo1.maven.org/maven2/org/scala-lang/scala-reflect/2.13.12/scala-reflect-2.13.12.jar",
        "qref:v1:c3fede0e:/home/tullius-usma/.cache/coursier/v1/https/repo1.maven.org/maven2/io/github/java-diff-utils/java-diff-utils/4.12/java-diff-utils-4.12.jar",
        "qref:v1:cc689ca3:/home/tullius-usma/.cache/coursier/v1/https/repo1.maven.org/maven2/org/jline/jline/3.22.0/jline-3.22.0.jar",
        "qref:v1:85acd520:/home/tullius-usma/.cache/coursier/v1/https/repo1.maven.org/maven2/net/java/dev/jna/jna/5.13.0/jna-5.13.0.jar",
        "qref:v1:589290b0:/home/tullius-usma/.cache/coursier/v1/https/repo1.maven.org/maven2/com/lihaoyi/sourcecode_2.13/0.3.0/sourcecode_2.13-0.3.0.jar",
        "ref:v0:0a25ff36:/home/tullius-usma/dev/lolcatcode/out/mill-build/compile.dest/classes"
    ],
    "runClasspathHash": 1929294318
}