{
  "value": [
    "qref:v1:0b343398:/home/tullius-usma/.cache/coursier/v1/https/repo1.maven.org/maven2/com/lihaoyi/scalac-mill-moduledefs-plugin_2.13.12/0.10.9/scalac-mill-moduledefs-plugin_2.13.12-0.10.9.jar",
    "qref:v1:388af458:/home/tullius-usma/.cache/coursier/v1/https/repo1.maven.org/maven2/org/scala-lang/scala-compiler/2.13.12/scala-compiler-2.13.12.jar",
    "qref:v1:589290b0:/home/tullius-usma/.cache/coursier/v1/https/repo1.maven.org/maven2/com/lihaoyi/sourcecode_2.13/0.3.0/sourcecode_2.13-0.3.0.jar",
    "qref:v1:0004e741:/home/tullius-usma/.cache/coursier/v1/https/repo1.maven.org/maven2/org/scala-lang/scala-library/2.13.12/scala-library-2.13.12.jar",
    "qref:v1:647bb4c6:/home/tullius-usma/.cache/coursier/v1/https/repo1.maven.org/maven2/com/lihaoyi/mill-moduledefs_2.13/0.10.9/mill-moduledefs_2.13-0.10.9.jar",
    "qref:v1:9ddb38f4:/home/tullius-usma/.cache/coursier/v1/https/repo1.maven.org/maven2/org/scala-lang/scala-reflect/2.13.12/scala-reflect-2.13.12.jar",
    "qref:v1:c3fede0e:/home/tullius-usma/.cache/coursier/v1/https/repo1.maven.org/maven2/io/github/java-diff-utils/java-diff-utils/4.12/java-diff-utils-4.12.jar",
    "qref:v1:cc689ca3:/home/tullius-usma/.cache/coursier/v1/https/repo1.maven.org/maven2/org/jline/jline/3.22.0/jline-3.22.0.jar",
    "qref:v1:85acd520:/home/tullius-usma/.cache/coursier/v1/https/repo1.maven.org/maven2/net/java/dev/jna/jna/5.13.0/jna-5.13.0.jar",
    "qref:v1:8020de6d:/home/tullius-usma/.cache/coursier/v1/https/repo1.maven.org/maven2/com/lihaoyi/mill-runner-linenumbers_2.13/0.11.6/mill-runner-linenumbers_2.13-0.11.6.jar"
  ],
  "valueHash": -1905029012,
  "inputsHash": 1446756830
}