{
  "value": [
    {
      "dep": {
        "module": {
          "organization": {
            "value": "org.scala-lang"
          },
          "name": {
            "value": "scala-library"
          },
          "attributes": {}
        },
        "version": "2.13.12",
        "configuration": {
          "value": "default(compile)"
        },
        "minimizedExclusions": {
          "data": "coursier.core.MinimizedExclusions.ExcludeNone"
        },
        "publication": {
          "name": "",
          "type": {
            "value": ""
          },
          "ext": {
            "value": ""
          },
          "classifier": {
            "value": ""
          }
        },
        "optional": false,
        "transitive": true
      },
      "cross": {
        "$type": "mill.scalalib.CrossVersion.Constant",
        "value": "",
        "platformed": false
      },
      "force": true
    }
  ],
  "valueHash": -981587458,
  "inputsHash": 1884726877
}