{
  "value": [
    {
      "dep": {
        "module": {
          "organization": {
            "value": "com.lihaoyi"
          },
          "name": {
            "value": "scalac-mill-moduledefs-plugin"
          },
          "attributes": {}
        },
        "version": "0.10.9",
        "configuration": {
          "value": "default(compile)"
        },
        "minimizedExclusions": {
          "data": "coursier.core.MinimizedExclusions.ExcludeNone"
        },
        "publication": {
          "name": "",
          "type": {
            "value": ""
          },
          "ext": {
            "value": ""
          },
          "classifier": {
            "value": ""
          }
        },
        "optional": false,
        "transitive": true
      },
      "cross": {
        "$type": "mill.scalalib.CrossVersion.Full",
        "platformed": false
      },
      "force": false
    }
  ],
  "valueHash": 546207106,
  "inputsHash": -1043428974
}