{
    "value": [
        {
            "dep": {
                "module": {
                    "organization": {
                        "value": "com.lihaoyi"
                    },
                    "name": {
                        "value": "mill-contrib-playlib_2.13"
                    },
                    "attributes": {}
                },
                "version": "0.11.6",
                "configuration": {
                    "value": "default(compile)"
                },
                "minimizedExclusions": {
                    "data": "coursier.core.MinimizedExclusions.ExcludeNone"
                },
                "publication": {
                    "name": "",
                    "type": {
                        "value": ""
                    },
                    "ext": {
                        "value": ""
                    },
                    "classifier": {
                        "value": ""
                    }
                },
                "optional": false,
                "transitive": true
            },
            "force": false
        },
        {
            "dep": {
                "module": {
                    "organization": {
                        "value": "com.lihaoyi"
                    },
                    "name": {
                        "value": "mill-moduledefs_2.13"
                    },
                    "attributes": {}
                },
                "version": "0.10.9",
                "configuration": {
                    "value": "default(compile)"
                },
                "minimizedExclusions": {
                    "data": "coursier.core.MinimizedExclusions.ExcludeNone"
                },
                "publication": {
                    "name": "",
                    "type": {
                        "value": ""
                    },
                    "ext": {
                        "value": ""
                    },
                    "classifier": {
                        "value": ""
                    }
                },
                "optional": false,
                "transitive": true
            },
            "force": false
        },
        {
            "dep": {
                "module": {
                    "organization": {
                        "value": "org.scala-lang"
                    },
                    "name": {
                        "value": "scala-library"
                    },
                    "attributes": {}
                },
                "version": "2.13.12",
                "configuration": {
                    "value": "default(compile)"
                },
                "minimizedExclusions": {
                    "data": "coursier.core.MinimizedExclusions.ExcludeNone"
                },
                "publication": {
                    "name": "",
                    "type": {
                        "value": ""
                    },
                    "ext": {
                        "value": ""
                    },
                    "classifier": {
                        "value": ""
                    }
                },
                "optional": false,
                "transitive": true
            },
            "force": true
        }
    ],
    "valueHash": -376877035,
    "inputsHash": -452162282
}